{
    "defaultSeverity": "error",
    "extends": [
        "tslint:recommended"
    ],
    "jsRules": {},
    "rules": {
      "object-literal-sort-keys": false,
      "no-unused-variable": true,
      "no-console": false,
      "cyclomatic-complexity": true
    },
    "rulesDirectory": []
}